<?xml version="1.0" encoding="iso-8859-1"?>
<!-- Generator: Adobe Illustrator 21.0.0, SVG Export Plug-In . SVG Version: 6.00 Build 0)  -->
<svg version="1.1" id="Calque_1" xmlns="http://www.w3.org/2000/svg" xmlns:xlink="http://www.w3.org/1999/xlink" x="0px" y="0px"
	 width="47px" height="47px" viewBox="0 0 47 47" enable-background="new 0 0 47 47" xml:space="preserve">
<g>
	<path fill="#FFFFFF" d="M36.25,10.236C32.981,6.844,28.479,4.736,23.5,4.736s-9.482,2.107-12.74,5.499
		C7.502,13.628,5.478,18.316,5.478,23.5s2.024,9.872,5.282,13.275c3.258,3.392,7.761,5.488,12.74,5.488s9.482-2.096,12.751-5.488
		c3.258-3.403,5.272-8.091,5.272-13.275S39.508,13.628,36.25,10.236 M23.5,3.147c5.401,0,10.283,2.276,13.823,5.962
		c3.539,3.685,5.726,8.767,5.726,14.391c0,5.623-2.187,10.706-5.726,14.391c-3.54,3.685-8.422,5.961-13.823,5.961
		s-10.283-2.276-13.822-5.961c-3.54-3.685-5.726-8.768-5.726-14.391c0-5.624,2.186-10.706,5.726-14.391
		C13.217,5.424,18.098,3.147,23.5,3.147"/>
	<path fill="#FFFFFF" d="M24.993,19.342v-1.668c0-0.8,0.509-0.991,0.877-0.991h2.241v-3.562h-3.085c-3.432,0-4.2,2.637-4.2,4.35
		v1.871h-1.992v2.513v1.646h2.013v10.39h3.995v-10.39h2.955l0.13-1.634l0.238-2.525H24.993z"/>
</g>
<g>
</g>
<g>
</g>
<g>
</g>
<g>
</g>
<g>
</g>
<g>
</g>
</svg>
