<?xml version="1.0" encoding="iso-8859-1"?>
<!-- Generator: Adobe Illustrator 21.0.0, SVG Export Plug-In . SVG Version: 6.00 Build 0)  -->
<svg version="1.1" id="Calque_1" xmlns="http://www.w3.org/2000/svg" xmlns:xlink="http://www.w3.org/1999/xlink" x="0px" y="0px"
	 width="100px" height="100px" viewBox="0 0 100 100" enable-background="new 0 0 100 100" xml:space="preserve">
<g>
	<path fill="#FFFFFF" d="M73.759,44.585c2.988-1.72,5.963-3.461,8.932-5.211c1.981-1.167,3.986-2.303,5.903-3.571
		c1.345-0.89,1.625-2.823,0.814-4.34c-0.61-1.141-2.332-1.878-3.663-1.349c-1.429,0.568-2.798,1.311-4.138,2.073
		c-3.956,2.248-7.882,4.549-11.825,6.819c-3.466,1.995-6.949,3.959-10.404,5.973c-1.424,0.83-2.866,1.659-4.169,2.659
		c-2.229,1.71-1.199,4.963,1.223,5.528c1.26,0.294,2.49,0.719,3.885,1.129c0,0.617,0.26,1.462-0.052,1.857
		c-0.738,0.936-0.815,1.999-0.987,3.13c-0.784,0.243-1.535,0.475-2.386,0.738c-0.054,0.595-0.136,1.134-0.144,1.674
		c-0.021,1.312,0.075,2.631-0.03,3.934c-0.106,1.322,0.355,2.321,1.25,3.239c1.153,1.183,2.242,2.429,3.361,3.651
		c0,4.382,0,6.989,0,11.238c-0.166,0.595-0.306,3.459,4.208,2.963c0.448,0.595,0.835,1.184,1.295,1.707
		c1.533,1.745,3.419,2.955,5.793,2.616c1.973-0.282,3.779-1.284,4.795-3.068c0.653-1.147,1.465-1.34,2.59-1.336
		c1.704,0.006,2.347-0.562,2.636-2.25c0.093-0.543,0.087-1.106,0.089-1.66c0.01-2.927,0.012-5.854,0.007-8.781
		c-0.002-1.145,0.205-2.154,1.149-2.977c0.859-0.748,1.635-1.614,2.332-2.517c0.443-0.574,0.906-1.293,0.957-1.976
		c0.13-1.755,0.06-3.528,0.019-5.292c-0.018-0.775-0.399-1.337-1.235-1.497c-0.339-0.065-0.667-0.19-0.982-0.283
		c-0.263-0.82-0.393-1.64-0.769-2.324c-1.203-2.186-0.842-4.315-0.166-6.344c1.519-0.862,2.85-1.565,4.127-2.356
		c1.161-0.719,1.679-1.853,1.61-3.196c-0.03-0.591-0.276-1.171-0.407-1.688c-1.519-1.361-3.151-1.778-4.417-1.08
		c-2.058,1.136-4.135,2.25-6.11,3.518c-1.291,0.828-2.21,1.953-2.109,3.728c0.127,2.211,0.031,4.435,0.031,6.654
		c-0.095-0.023-0.19-0.045-0.285-0.068c-0.344,0.954-0.688,1.908-1.127,3.124c-2.113,0.553-4.415,0.354-6.374,0.157
		c-0.678-1.278-1.192-2.22-1.675-3.177c-0.132-0.262-0.229-0.57-0.242-0.861c-0.1-2.21-0.175-4.421-0.264-6.81
		c0.477-0.338,0.939-0.728,1.456-1.023C70.084,46.62,71.938,45.633,73.759,44.585z"/>
	<path fill="#FFFFFF" d="M17.12,86.647c0.689,0.029,1.377,0.1,2.01,0.147c1.357,2.699,3.49,4.261,6.275,4.239
		c2.87-0.023,4.843-1.93,6.229-4.321c1.063-0.047,2.016-0.09,2.97-0.132c1.6-0.061,1.302-2.453,1.305-3.154
		c0.011-3.026,0.061-6.054-0.02-9.079c-0.036-1.363,0.33-2.416,1.338-3.342c0.886-0.813,1.666-1.746,2.457-2.657
		c0.288-0.331,0.662-0.747,0.673-1.133c0.062-2.357,0.031-4.716,0.031-7.315c-0.815-0.099-1.397-0.23-1.98-0.231
		c-8.726-0.012-17.453-0.011-26.179,0.005c-0.58,0.001-1.16,0.145-1.717,0.219c-0.147,0.425-0.326,0.705-0.33,0.988
		c-0.029,1.965-0.087,3.934,0.013,5.894c0.03,0.582,0.453,1.206,0.842,1.693c0.714,0.895,1.481,1.766,2.33,2.531
		c0.943,0.851,1.282,1.862,1.274,3.081c-0.019,2.825-0.009,5.649-0.001,8.474c0.002,0.655-0.011,1.317,0.079,1.963
		C14.931,86.062,15.558,86.582,17.12,86.647z"/>
	<path fill="#FFFFFF" d="M60.8,40.059c3.752-2.106,7.47-4.27,11.196-6.423c2.943-1.701,5.874-3.422,8.814-5.128
		c1.73-1.004,3.465-2,5.2-2.995c1.563-0.896,2.073-2.249,1.735-3.972c-0.058-0.296-0.134-0.589-0.195-0.853
		c-1.711-1.803-3.347-1.977-5.5-0.648c-0.723,0.447-1.5,0.807-2.235,1.234c-2.938,1.707-5.863,3.439-8.807,5.136
		c-2.338,1.348-4.703,2.649-7.044,3.99c-2.171,1.244-4.401,2.406-6.468,3.805c-1.67,1.13-2.088,2.713-1.31,4.199
		C57.113,40.181,59.241,40.934,60.8,40.059z"/>
	<path fill="#FFFFFF" d="M64.029,25.97c2.092-1.066,4.126-2.248,6.166-3.412c2.869-1.636,5.725-3.295,8.578-4.958
		c1.556-0.907,3.152-1.758,4.625-2.786c1.537-1.072,1.725-2.551,0.754-4.228c-0.861-1.486-2.43-2.13-3.961-1.363
		c-2.634,1.32-5.205,2.771-7.77,4.223c-3.526,1.996-7.042,4.013-10.522,6.089c-1.326,0.791-2.77,1.61-2.524,3.335
		C59.384,25.679,61.707,27.153,64.029,25.97z"/>
	<path fill="#FFFFFF" d="M15.788,57.456c0,0,0.002-20.247-0.004-29.37c-0.001-1.019-0.048-2.039,0.826-2.596
		c0-1.177,0-2.204,0-3.192c-2.389-0.538-4.085,0.585-4.364,2.809c-0.119,0.947-0.149,1.91-0.15,2.866
		c-0.012,9.275,0.145,29.483,0.145,29.483H15.788z"/>
	<path fill="#FFFFFF" d="M23.964,57.322c0,0,0-6.57,0-9.789c0-3.179,0-6.358,0-9.537c0-3.229-0.005-6.459,0.002-9.688
		c0.007-3.208-0.033-6.419,0.031-9.846c1.03,0.054,1.783,0.093,2.705,0.141c0,10.254,0.19,38.849,0.19,38.849
		c1.753,0,3.371,0,5.171,0c0-0.409,0-0.802,0-1.186c0,0,0.094-26.499,0.101-34.169c0.002-2.065,0.083-4.115-0.821-6.078
		c-0.653-1.418-1.439-2.609-2.991-3.141c-1.775-0.609-3.589-0.493-5.384-0.234c-1.545,0.223-2.662,1.201-3.372,2.545
		c-0.733,1.389-1.062,2.882-1.058,4.495c0.036,12.059,0.217,37.842,0.217,37.842L23.964,57.322z"/>
	<path fill="#FFFFFF" d="M34.935,28.221c0,5.295,0.17,29.229,0.17,29.229h3.354c0,0,0.131-25.354,0.125-29.943
		c-0.001-0.655,0.049-1.329-0.082-1.961c-0.389-1.876-1.854-4.224-4.375-3.228c-0.277,1.166-0.584,2.405,0.114,3.37
		C34.842,26.517,34.935,27.314,34.935,28.221z"/>
</g>
<g>
</g>
<g>
</g>
<g>
</g>
<g>
</g>
<g>
</g>
<g>
</g>
</svg>
