<svg width="17" height="14" viewBox="0 0 17 14" fill="none" xmlns="http://www.w3.org/2000/svg">
  <path d="M10.2321 13C9.46225 14.3333 7.53775 14.3333 6.76795 13L1.13879 3.25C0.368985 1.91667 1.33123 0.25 2.87083 0.25L14.1292 0.249999C15.6688 0.249998 16.631 1.91667 15.8612 3.25L10.2321 13Z" fill="#ffffff" />
</svg>
